<?xml version="1.0" standalone="no"?>
<!DOCTYPE svg PUBLIC "-//W3C//DTD SVG 20010904//EN"
 "http://www.w3.org/TR/2001/REC-SVG-20010904/DTD/svg10.dtd">
<svg version="1.0" xmlns="http://www.w3.org/2000/svg"
 width="200.000000pt" height="200.000000pt" viewBox="0 0 200.000000 200.000000"
 preserveAspectRatio="xMidYMid meet">
<metadata>
Created by potrace 1.11, written by Peter Selinger 2001-2013
</metadata>
<g transform="translate(0.000000,200.000000) scale(0.100000,-0.100000)"
fill="#000000" stroke="none">
<path d="M949 1874 c-6 -8 -9 -17 -6 -21 4 -3 1 -13 -6 -21 -10 -13 -9 -14 3
-7 13 7 13 6 2 -7 -10 -12 -10 -18 2 -27 12 -10 16 -9 24 6 5 10 7 24 4 32 -3
8 0 11 7 7 6 -4 11 -15 11 -26 0 -27 28 -32 51 -9 19 19 20 22 4 46 -10 14
-12 23 -7 19 6 -3 13 -2 16 3 9 14 -20 21 -33 8 -16 -16 -14 -37 4 -43 22 -9
18 -24 -5 -24 -13 0 -18 5 -14 15 4 9 -1 18 -11 21 -9 4 -14 12 -11 19 7 19
-20 26 -35 9z"/>
<path d="M784 1851 c-3 -3 -13 -6 -22 -6 -12 0 -18 -10 -20 -34 -3 -27 0 -33
12 -28 19 7 22 -9 4 -16 -10 -4 -10 -8 2 -16 20 -14 28 -6 23 23 -5 23 12 44
25 31 3 -3 0 -10 -7 -14 -11 -7 -9 -11 6 -20 28 -15 34 -4 19 33 -7 17 -11 36
-9 42 4 11 -23 15 -33 5z m2 -26 c-11 -8 -25 -15 -30 -15 -6 1 0 7 14 15 32
19 40 18 16 0z"/>
<path d="M1193 1853 c-7 -3 -13 -11 -13 -19 0 -8 -5 -14 -11 -14 -6 0 -9 -12
-7 -27 2 -17 9 -28 18 -28 8 0 24 -5 35 -11 32 -18 68 0 63 31 -3 16 0 26 11
30 13 5 13 8 2 15 -18 11 -41 2 -41 -16 0 -12 -4 -12 -19 -2 -14 8 -17 16 -10
24 11 13 -8 24 -28 17z m23 -54 c3 -6 2 -15 -4 -21 -6 -6 -11 -2 -15 11 -5 22
7 29 19 10z m54 -19 c0 -5 -9 -10 -20 -10 -11 0 -20 5 -20 10 0 6 9 10 20 10
11 0 20 -4 20 -10z"/>
<path d="M497 1843 c-16 -15 -5 -59 27 -102 45 -62 82 -171 58 -171 -13 0
-131 -121 -162 -165 -65 -95 -126 -249 -129 -328 -2 -30 -57 -46 -161 -44
-103 1 -120 -4 -120 -33 0 -20 38 -52 52 -44 5 3 40 5 78 5 76 0 146 -17 147
-35 3 -94 54 -230 126 -335 33 -48 154 -171 168 -171 27 0 -11 -116 -60 -182
-46 -63 -40 -107 14 -94 16 4 31 23 49 62 26 56 64 109 96 131 13 9 30 7 85
-13 90 -33 130 -39 250 -38 95 1 242 31 269 56 31 27 99 -35 141 -127 25 -56
40 -72 70 -71 35 1 31 48 -8 103 -20 26 -44 75 -55 107 l-20 59 54 44 c132
107 238 304 243 451 2 41 107 65 209 47 23 -4 38 1 58 19 27 23 27 24 10 42
-15 15 -32 17 -101 15 -45 -1 -102 3 -127 9 l-44 11 -12 69 c-25 149 -104 293
-217 399 -36 33 -65 66 -65 72 0 27 26 87 62 143 39 60 44 80 29 105 -17 27
-58 -3 -86 -63 -14 -29 -43 -73 -64 -97 l-38 -44 -65 23 c-118 42 -272 57
-387 38 -24 -4 -75 -19 -115 -33 l-70 -26 -38 43 c-21 23 -49 66 -63 96 -29
60 -66 89 -88 67z"/>
<path d="M766 189 c-9 -45 -7 -69 4 -69 6 0 10 6 10 14 0 8 10 16 21 18 27 4
48 33 34 46 -6 5 -22 12 -36 16 -24 5 -27 2 -33 -25z m52 -7 c2 -7 -5 -12 -17
-12 -14 0 -19 5 -14 15 6 17 25 15 31 -3z"/>
<path d="M1166 204 c-20 -19 -6 -44 25 -44 11 0 19 -7 19 -15 0 -18 -12 -19
-27 -4 -7 7 -13 7 -17 1 -3 -5 1 -15 9 -22 12 -10 20 -9 40 4 29 19 24 43 -11
52 -13 3 -24 10 -24 16 0 5 10 6 21 3 15 -5 20 -3 17 6 -7 21 -33 22 -52 3z"/>
<path d="M967 153 c-17 -46 -14 -74 4 -41 10 18 37 14 51 -6 4 -6 10 -8 13 -4
8 8 -31 98 -42 98 -5 0 -16 -21 -26 -47z m37 2 c3 -9 0 -15 -9 -15 -9 0 -12 6
-9 15 4 8 7 15 9 15 2 0 5 -7 9 -15z"/>
<path d="M880 114 c0 -8 5 -12 10 -9 6 4 8 11 5 16 -9 14 -15 11 -15 -7z"/>
<path d="M1090 121 c0 -5 5 -13 10 -16 6 -3 10 -2 10 4 0 5 -4 13 -10 16 -5 3
-10 2 -10 -4z"/>
</g>
</svg>
